EESchema Schematic File Version 4
EELAYER 26 0
EELAYER END
$Descr User 5906 5512
encoding utf-8
Sheet 1 1
Title "uscan"
Date "2018-09-10"
Rev "0.1.0"
Comp "ConcaveTriangle"
Comment1 ""
Comment2 ""
Comment3 ""
Comment4 ""
$EndDescr
$Comp
L teensy:Teensy3.6 U2
U 1 1 5B95AD80
P 2700 1500
F 0 "U2" V 2647 3728 60  0000 L CNN
F 1 "Teensy3.6" V 2753 3728 60  0000 L CNN
F 2 "" H 2700 1500 60  0000 C CNN
F 3 "" H 2700 1500 60  0000 C CNN
	1    2700 1500
	0    1    1    0   
$EndComp
$Comp
L Motor:Motor_Servo M2
U 1 1 5B95AFDA
P 1550 3200
F 0 "M2" V 1499 3407 50  0000 L CNN
F 1 "Azimuth" V 1590 3407 50  0000 L CNN
F 2 "" H 1550 3010 50  0001 C CNN
F 3 "http://forums.parallax.com/uploads/attachments/46831/74481.png" H 1550 3010 50  0001 C CNN
	1    1550 3200
	0    1    1    0   
$EndComp
$Comp
L Motor:Motor_Servo M1
U 1 1 5B95B22B
P 650 3200
F 0 "M1" V 599 3406 50  0000 L CNN
F 1 "Polar" V 690 3406 50  0000 L CNN
F 2 "" H 650 3010 50  0001 C CNN
F 3 "http://forums.parallax.com/uploads/attachments/46831/74481.png" H 650 3010 50  0001 C CNN
	1    650  3200
	0    1    1    0   
$EndComp
$Comp
L Sensor_Proximity:TSSP58038 U1
U 1 1 5B95BF1C
P 2550 3300
F 0 "U1" V 2583 3020 50  0000 R CNN
F 1 "Rangefinder" V 2492 3020 50  0000 R CNN
F 2 "OptoDevice:Vishay_MINICAST-3Pin" H 2500 2925 50  0001 C CNN
F 3 "http://www.vishay.com/docs/82476/tssp58p38.pdf" H 3200 3600 50  0001 C CNN
	1    2550 3300
	0    -1   -1   0   
$EndComp
$Comp
L power:+3.3V #PWR02
U 1 1 5B95E1E6
P 650 2900
F 0 "#PWR02" H 650 2750 50  0001 C CNN
F 1 "+3.3V" V 665 3028 50  0000 L CNN
F 2 "" H 650 2900 50  0001 C CNN
F 3 "" H 650 2900 50  0001 C CNN
	1    650  2900
	1    0    0    -1  
$EndComp
$Comp
L power:GND #PWR01
U 1 1 5B95E253
P 550 2900
F 0 "#PWR01" H 550 2650 50  0001 C CNN
F 1 "GND" V 555 2727 50  0000 C CNN
F 2 "" H 550 2900 50  0001 C CNN
F 3 "" H 550 2900 50  0001 C CNN
	1    550  2900
	-1   0    0    1   
$EndComp
Wire Wire Line
	750  2550 1000 2550
Wire Wire Line
	1000 2550 1000 2500
Wire Wire Line
	750  2550 750  2900
$Comp
L power:GND #PWR03
U 1 1 5B95E616
P 1450 2900
F 0 "#PWR03" H 1450 2650 50  0001 C CNN
F 1 "GND" V 1455 2727 50  0000 C CNN
F 2 "" H 1450 2900 50  0001 C CNN
F 3 "" H 1450 2900 50  0001 C CNN
	1    1450 2900
	-1   0    0    1   
$EndComp
$Comp
L power:+3.3V #PWR04
U 1 1 5B95E68B
P 1550 2900
F 0 "#PWR04" H 1550 2750 50  0001 C CNN
F 1 "+3.3V" V 1565 3073 50  0000 C CNN
F 2 "" H 1550 2900 50  0001 C CNN
F 3 "" H 1550 2900 50  0001 C CNN
	1    1550 2900
	1    0    0    -1  
$EndComp
Wire Wire Line
	1650 2900 1650 2600
Wire Wire Line
	1650 2600 1100 2600
Wire Wire Line
	1100 2600 1100 2500
$Comp
L power:+3.3V #PWR05
U 1 1 5B95EAB6
P 2350 2900
F 0 "#PWR05" H 2350 2750 50  0001 C CNN
F 1 "+3.3V" H 2365 3073 50  0000 C CNN
F 2 "" H 2350 2900 50  0001 C CNN
F 3 "" H 2350 2900 50  0001 C CNN
	1    2350 2900
	1    0    0    -1  
$EndComp
$Comp
L power:GND #PWR06
U 1 1 5B95EB23
P 2750 2900
F 0 "#PWR06" H 2750 2650 50  0001 C CNN
F 1 "GND" H 2755 2727 50  0000 C CNN
F 2 "" H 2750 2900 50  0001 C CNN
F 3 "" H 2750 2900 50  0001 C CNN
	1    2750 2900
	-1   0    0    1   
$EndComp
Wire Wire Line
	2550 2900 2550 2550
Wire Wire Line
	2550 2550 1200 2550
Wire Wire Line
	1200 2550 1200 2500
$EndSCHEMATC
